day_2 - neo
…
aff_df_longer <- aff_df_metricized %>% 
  pivot_longer(cols = 4:12, names_to = "num_vars", values_to = "values")
aff_df_longer

# A tibble: 126 x 5
    year result       position num_vars       values
   <int> <fct>        <fct>    <chr>           <dbl>
 1  1996 Fourth place 4th      pld               6  
 2  1996 Fourth place 4th      w                 3  
 3  1996 Fourth place 4th      d                 1  
 4  1996 Fourth place 4th      l                 2  
 5  1996 Fourth place 4th      gf               18  
 6  1996 Fourth place 4th      ga                9  
 7  1996 Fourth place 4th      win_rate          0.5
 8  1996 Fourth place 4th      offensive_rate    3  
 9  1996 Fourth place 4th      defensive_rate   -0.5
10  1998 Third place  3rd      pld               5  
# i 116 more rows
…
